<?xml version="1.0" encoding="UTF-8" standalone="no"?>
<svg width="12px" height="12px" viewBox="0 0 12 12" version="1.1" xmlns="http://www.w3.org/2000/svg" xmlns:xlink="http://www.w3.org/1999/xlink" xmlns:sketch="http://www.bohemiancoding.com/sketch/ns">
    <!-- Generator: Sketch 3.3.3 (12081) - http://www.bohemiancoding.com/sketch -->
    <title>choose-arrow--right</title>
    <desc>Created with Sketch.</desc>
    <defs></defs>
    <g id="Page-1" stroke="none" stroke-width="1" fill="none" fill-rule="evenodd" sketch:type="MSPage">
        <path d="M9.527,6.5265 L4.42,11.6335 C4.094,11.9585 3.568,11.9585 3.243,11.6335 C2.919,11.3085 2.919,10.7825 3.243,10.4575 L7.762,5.9385 L3.244,1.4205 C2.919,1.0955 2.919,0.5685 3.244,0.2445 C3.569,-0.0815 4.095,-0.0815 4.42,0.2445 L9.527,5.3515 C9.689,5.5135 9.77,5.7255 9.77,5.9385 C9.77,6.1515 9.689,6.3655 9.527,6.5265 L9.527,6.5265 Z" id="choose-arrow-right" fill="#008FC5" sketch:type="MSShapeGroup"></path>
    </g>
</svg>