<?xml version="1.0" encoding="UTF-8" standalone="no"?>
<svg width="446px" height="158px" viewBox="0 0 446 158" version="1.1" xmlns="http://www.w3.org/2000/svg" xmlns:xlink="http://www.w3.org/1999/xlink" xmlns:sketch="http://www.bohemiancoding.com/sketch/ns">
    <!-- Generator: Sketch 3.3.3 (12081) - http://www.bohemiancoding.com/sketch -->
    <title>Imported Layers</title>
    <desc>Created with Sketch.</desc>
    <defs></defs>
    <g id="Page-1" stroke="none" stroke-width="1" fill="none" fill-rule="evenodd" sketch:type="MSPage">
        <g id="Imported-Layers" sketch:type="MSLayerGroup">
            <path d="M30.144,1.395 L21.161,65.432 C20.462,70.097 21.512,70.797 24.778,70.797 L29.21,70.797 C32.359,70.797 33.759,70.097 34.459,65.432 L43.44,1.395 L58.603,1.395 L49.739,64.849 C47.64,80.012 42.857,83.511 26.644,83.511 L23.727,83.511 C7.514,83.511 3.665,80.012 5.765,64.849 L14.63,1.395 L30.144,1.395" id="Fill-1" fill="#FFFFFF" sketch:type="MSShapeGroup"></path>
            <path d="M78.552,1.395 L86.366,46.419 L86.483,46.419 L92.781,1.395 L107.129,1.395 L95.697,83.044 L79.718,83.044 L72.836,40.237 L72.719,40.237 L66.654,83.044 L51.723,83.044 L63.155,1.395 L78.552,1.395" id="Fill-2" fill="#FFFFFF" sketch:type="MSShapeGroup"></path>
            <path d="M111.912,1.395 L127.192,1.395 L115.761,83.044 L100.481,83.044 L111.912,1.395" id="Fill-3" fill="#FFFFFF" sketch:type="MSShapeGroup"></path>
            <path d="M147.488,83.044 L132.091,83.044 L141.772,14.459 L127.309,14.459 L129.175,1.395 L173.499,1.395 L171.633,14.459 L157.169,14.459 L147.488,83.044" id="Fill-4" fill="#FFFFFF" sketch:type="MSShapeGroup"></path>
            <path d="M180.966,69.981 L202.195,69.981 L200.329,83.044 L163.819,83.044 L175.251,1.395 L211.759,1.395 L210.01,14.459 L188.781,14.459 L185.866,34.754 L205.112,34.754 L203.245,47.818 L183.999,47.818 L180.966,69.981" id="Fill-5" fill="#FFFFFF" sketch:type="MSShapeGroup"></path>
            <path d="M229.141,1.395 L244.422,1.395 L232.99,83.044 L217.711,83.044 L229.141,1.395" id="Fill-6" fill="#FFFFFF" sketch:type="MSShapeGroup"></path>
            <path d="M272.066,0.928 C288.279,0.928 292.129,4.311 290.029,19.591 L288.746,28.69 L273.466,28.69 L274.866,18.659 C275.449,14.109 273.466,13.642 270.317,13.642 L267.75,13.642 C264.601,13.642 262.385,14.109 261.802,18.659 L255.153,66.132 C254.453,70.68 256.552,70.797 259.702,70.797 L262.268,70.797 C265.418,70.797 267.634,70.68 268.217,66.132 L270.317,51.434 L263.085,51.434 L264.951,38.721 L287.23,38.721 L283.614,64.849 C281.514,80.012 276.732,83.511 260.519,83.511 L257.952,83.511 C241.739,83.511 237.89,80.012 239.99,64.849 L246.405,19.591 C248.504,4.311 253.287,0.928 269.5,0.928 L272.066,0.928" id="Fill-7" fill="#FFFFFF" sketch:type="MSShapeGroup"></path>
            <path d="M312.076,1.395 L319.891,46.419 L320.008,46.419 L326.307,1.395 L340.654,1.395 L329.222,83.044 L313.243,83.044 L306.361,40.237 L306.244,40.237 L300.179,83.044 L285.249,83.044 L296.679,1.395 L312.076,1.395" id="Fill-8" fill="#FFFFFF" sketch:type="MSShapeGroup"></path>
            <path d="M345.437,1.395 L360.717,1.395 L349.286,83.044 L334.006,83.044 L345.437,1.395" id="Fill-9" fill="#FFFFFF" sketch:type="MSShapeGroup"></path>
            <path d="M381.013,83.044 L365.616,83.044 L375.297,14.459 L360.833,14.459 L362.7,1.395 L407.023,1.395 L405.157,14.459 L390.694,14.459 L381.013,83.044" id="Fill-10" fill="#FFFFFF" sketch:type="MSShapeGroup"></path>
            <path d="M414.491,69.981 L435.72,69.981 L433.853,83.044 L397.344,83.044 L408.776,1.395 L445.284,1.395 L443.535,14.459 L422.306,14.459 L419.39,34.754 L438.636,34.754 L436.77,47.818 L417.524,47.818 L414.491,69.981" id="Fill-11" fill="#FFFFFF" sketch:type="MSShapeGroup"></path>
            <path d="M1.615,146.805 L8.68,96.344 L22.633,96.344 C27.39,96.344 30.953,96.794 32.88,98.994 C34.461,100.8 34.842,103.529 34.193,108.414 L33.575,113.016 C32.977,117.297 31.881,119.776 29.767,121.115 C30.078,121.351 30.367,121.632 30.622,121.969 C31.751,123.463 31.998,125.697 31.445,129.439 L30.621,135.067 C29.063,145.895 25.784,146.805 16.043,146.805 L1.615,146.805 L1.615,146.805 Z M17.073,136.914 C18.467,136.914 18.879,136.841 19.106,135.206 L20.205,127.312 C20.311,126.567 20.218,126.228 20.145,126.145 C20.091,126.082 19.856,125.936 18.858,125.936 L15.988,125.936 L14.413,136.914 L17.073,136.914 L17.073,136.914 Z M20.024,116.526 C21.177,116.526 21.609,116.526 21.853,114.815 L22.812,107.616 C22.931,106.788 22.826,106.459 22.776,106.401 C22.761,106.384 22.602,106.234 21.603,106.234 L18.738,106.234 L17.291,116.526 L20.024,116.526 L20.024,116.526 Z" id="Fill-12" fill="#000000" sketch:type="MSShapeGroup"></path>
            <path d="M22.633,97.548 C32.107,97.548 34.166,99.47 32.999,108.256 L32.381,112.856 C31.557,118.759 29.841,120.544 26.134,121.093 C29.841,121.574 31.146,123.222 30.253,129.263 L29.43,134.892 C27.988,144.914 25.516,145.601 16.043,145.601 L3,145.601 L9.728,97.548 L22.633,97.548 L22.633,97.548 Z M15.906,117.73 L20.025,117.73 C21.672,117.73 22.702,117.387 23.045,114.984 L24.006,107.775 C24.35,105.373 23.32,105.029 21.604,105.029 L17.691,105.029 L15.906,117.73 L15.906,117.73 Z M13.023,138.118 L17.073,138.118 C18.789,138.118 19.956,137.844 20.299,135.372 L21.398,127.478 C21.741,125.075 20.574,124.732 18.858,124.732 L14.945,124.732 L13.023,138.118 L13.023,138.118 Z M22.633,95.139 L7.633,95.139 L0.231,148.009 L16.043,148.009 C26.155,148.009 30.134,146.908 31.813,135.235 L32.636,129.612 C33.24,125.523 32.925,123.019 31.582,121.243 C31.573,121.231 31.565,121.22 31.556,121.209 C33.465,119.374 34.291,116.598 34.766,113.188 L35.386,108.577 C35.898,104.72 36.059,100.796 33.786,98.201 C31.56,95.66 27.718,95.139 22.633,95.139 L22.633,95.139 Z M19.784,107.438 L21.604,107.438 L21.622,107.438 L20.658,114.666 C20.613,114.979 20.559,115.181 20.518,115.301 C20.417,115.312 20.26,115.322 20.025,115.322 L18.676,115.322 L19.784,107.438 L19.784,107.438 Z M17.032,127.14 L18.858,127.14 C18.913,127.14 18.965,127.141 19.013,127.141 L17.914,135.04 C17.869,135.364 17.814,135.563 17.774,135.675 C17.654,135.692 17.441,135.71 17.073,135.71 L15.802,135.71 L17.032,127.14 L17.032,127.14 Z" id="Fill-13" fill="#FFFFFF" sketch:type="MSShapeGroup"></path>
            <path d="M29.002,146.805 L36.067,96.344 L47.491,96.344 L41.862,136.708 L53.331,136.708 L51.889,146.805 L29.002,146.805" id="Fill-14" fill="#000000" sketch:type="MSShapeGroup"></path>
            <path d="M46.107,97.548 L40.478,137.912 L51.942,137.912 L50.844,145.601 L30.387,145.601 L37.114,97.548 L46.107,97.548 M48.875,95.139 L35.02,95.139 L27.618,148.009 L52.933,148.009 L54.719,135.504 L43.246,135.504 L48.875,95.139" id="Fill-15" fill="#FFFFFF" sketch:type="MSShapeGroup"></path>
            <path d="M70.268,146.805 L69.993,137.949 L62.787,137.949 L60.11,146.805 L48.52,146.805 L64.163,96.344 L80.155,96.344 L81.668,146.805 L70.268,146.805 L70.268,146.805 Z M70.217,127.372 L70.035,111.731 L65.488,127.372 L70.217,127.372 L70.217,127.372 Z" id="Fill-16" fill="#000000" sketch:type="MSShapeGroup"></path>
            <path d="M78.986,97.548 L80.428,145.601 L71.435,145.601 L71.16,136.746 L61.893,136.746 L59.216,145.601 L50.154,145.601 L65.05,97.548 L78.986,97.548 L78.986,97.548 Z M63.884,128.576 L71.435,128.576 L71.16,104.961 L70.748,104.961 L63.884,128.576 L63.884,128.576 Z M81.323,95.139 L63.276,95.139 L46.886,148.009 L61.003,148.009 L63.681,139.154 L68.825,139.154 L69.1,148.009 L82.909,148.009 L81.323,95.139 L81.323,95.139 Z M67.092,126.168 L68.925,119.862 L68.998,126.168 L67.092,126.168 L67.092,126.168 Z" id="Fill-17" fill="#FFFFFF" sketch:type="MSShapeGroup"></path>
            <path d="M92.575,147.08 C87.763,147.08 84.149,146.612 82.155,144.321 C80.517,142.442 80.127,139.661 80.81,134.727 L84.586,108.087 C85.883,98.652 89.061,96.069 99.371,96.069 L100.95,96.069 C105.79,96.069 109.418,96.532 111.392,98.795 C113.015,100.657 113.398,103.446 112.714,108.42 L111.333,118.247 L99.909,118.247 L101.405,107.54 C101.55,106.41 101.345,106.162 101.336,106.152 C101.272,106.08 101.004,105.959 99.92,105.959 L98.341,105.959 C96.774,105.959 96.268,106.046 96.035,107.861 L92.12,135.609 C91.98,136.696 92.178,136.958 92.202,136.985 C92.284,137.077 92.594,137.189 93.604,137.189 L95.184,137.189 C96.785,137.189 97.257,137.108 97.49,135.287 L99.148,123.527 L110.575,123.527 L108.938,135.061 C107.632,144.496 104.454,147.08 94.154,147.08 L92.575,147.08" id="Fill-18" fill="#000000" sketch:type="MSShapeGroup"></path>
            <path d="M100.95,97.273 C110.561,97.273 112.758,99.264 111.522,108.256 L110.286,117.043 L101.293,117.043 L102.598,107.707 C102.941,105.029 101.842,104.755 99.92,104.755 L98.341,104.755 C96.488,104.755 95.184,105.029 94.84,107.707 L90.927,135.44 C90.584,138.118 91.751,138.393 93.605,138.393 L95.184,138.393 C97.106,138.393 98.341,138.118 98.685,135.44 L100.195,124.732 L109.188,124.732 L107.746,134.892 C106.51,143.816 103.765,145.876 94.154,145.876 L92.575,145.876 C83.033,145.876 80.767,143.816 82.003,134.892 L85.779,108.256 C87.014,99.264 89.829,97.273 99.371,97.273 L100.95,97.273 M100.95,94.864 L99.371,94.864 C88.502,94.864 84.769,97.917 83.393,107.928 L79.619,134.554 C79.079,138.452 78.903,142.423 81.246,145.112 C83.539,147.745 87.433,148.284 92.575,148.284 L94.154,148.284 C105.013,148.284 108.746,145.232 110.132,135.223 L111.962,122.323 L98.102,122.323 L96.3,135.104 C96.241,135.565 96.164,135.813 96.117,135.93 C95.986,135.956 95.72,135.985 95.184,135.985 L93.605,135.985 C93.485,135.985 93.381,135.983 93.291,135.981 C93.297,135.911 93.305,135.833 93.316,135.746 L97.225,108.044 C97.286,107.573 97.367,107.33 97.413,107.223 C97.534,107.196 97.794,107.164 98.341,107.164 L99.92,107.164 C100.04,107.164 100.144,107.165 100.235,107.168 C100.228,107.237 100.22,107.315 100.209,107.401 L98.525,119.452 L112.38,119.452 L113.907,108.592 C114.446,104.665 114.624,100.671 112.299,98.004 C110.027,95.398 106.119,94.864 100.95,94.864" id="Fill-19" fill="#FFFFFF" sketch:type="MSShapeGroup"></path>
            <path d="M125.006,146.805 L122.672,127.995 L121.555,127.995 L118.878,146.805 L107.455,146.805 L114.52,96.344 L125.943,96.344 L123.197,116.114 L123.882,116.114 L131.776,96.344 L144.085,96.344 L133.288,121.993 L137.447,146.805 L125.006,146.805" id="Fill-20" fill="#000000" sketch:type="MSShapeGroup"></path>
            <path d="M142.271,97.548 L132.043,121.848 L136.024,145.601 L126.07,145.601 L123.736,126.791 L120.51,126.791 L117.833,145.601 L108.84,145.601 L115.568,97.548 L124.56,97.548 L121.814,117.318 L124.698,117.318 L132.592,97.548 L142.271,97.548 M145.898,95.139 L130.961,95.139 L125.388,109.095 L127.326,95.139 L113.473,95.139 L106.071,148.009 L119.923,148.009 L122.07,132.921 L123.942,148.009 L138.87,148.009 L134.534,122.139 L145.898,95.139" id="Fill-21" fill="#FFFFFF" sketch:type="MSShapeGroup"></path>
            <path d="M134.908,152.831 L136.125,150.927 C137.619,148.594 138.037,147.942 138.296,146.805 L135.661,146.805 L137.38,134.855 L147.569,134.855 L146.274,143.917 C145.616,148.455 143.814,150.884 140.145,154.985 L139.46,155.749 L134.908,152.831" id="Fill-22" fill="#000000" sketch:type="MSShapeGroup"></path>
            <path d="M146.181,136.059 L145.082,143.747 C144.464,148.003 142.748,150.269 139.247,154.182 L136.57,152.466 C139.11,148.484 139.316,148.347 139.727,145.601 L137.05,145.601 L138.423,136.059 L146.181,136.059 M148.958,133.65 L136.337,133.65 L134.271,148.009 L136.522,148.009 C136.223,148.541 135.784,149.225 135.111,150.277 L134.539,151.171 L133.247,153.197 L139.674,157.316 L141.042,155.788 C144.552,151.865 146.736,149.121 147.466,144.094 L148.958,133.65" id="Fill-23" fill="#FFFFFF" sketch:type="MSShapeGroup"></path>
            <path d="M170.067,97.548 L168.076,133.656 L168.145,133.656 L177.412,97.548 L186.885,97.548 L185.925,133.656 L185.993,133.656 L194.162,97.548 L203.361,97.548 L191.622,145.601 L177.618,145.601 L179.197,118.623 L179.128,118.623 L173.156,145.601 L159.22,145.601 L160.937,97.548 L170.067,97.548" id="Fill-24" fill="#FFFFFF" sketch:type="MSShapeGroup"></path>
            <path d="M204.523,97.548 L213.515,97.548 L210.769,117.181 L218.389,117.181 L221.135,97.548 L230.197,97.548 L223.47,145.601 L214.408,145.601 L217.222,125.349 L209.602,125.349 L206.788,145.601 L197.795,145.601 L204.523,97.548" id="Fill-25" fill="#FFFFFF" sketch:type="MSShapeGroup"></path>
            <path d="M233.008,97.548 L242.001,97.548 L235.273,145.601 L226.281,145.601 L233.008,97.548" id="Fill-26" fill="#FFFFFF" sketch:type="MSShapeGroup"></path>
            <path d="M253.944,145.601 L244.882,145.601 L250.58,105.236 L242.068,105.236 L243.166,97.548 L269.252,97.548 L268.154,105.236 L259.642,105.236 L253.944,145.601" id="Fill-27" fill="#FFFFFF" sketch:type="MSShapeGroup"></path>
            <path d="M273.643,137.912 L286.136,137.912 L285.038,145.601 L263.552,145.601 L270.279,97.548 L291.766,97.548 L290.736,105.236 L278.242,105.236 L276.526,117.181 L287.852,117.181 L286.754,124.869 L275.427,124.869 L273.643,137.912" id="Fill-28" fill="#FFFFFF" sketch:type="MSShapeGroup"></path>
            <path d="M321.211,106.403 L314.072,106.403 C312.356,106.403 311.189,106.952 310.846,109.355 L310.159,114.229 C309.816,116.632 310.777,117.249 312.356,117.249 L330.204,117.249 L329.381,123.084 L323.065,124.251 L320.113,145.601 L307.139,145.601 C297.665,145.601 295.4,144.914 296.773,134.892 L297.597,128.85 C298.489,122.397 301.029,120.819 305.217,120.544 C301.716,120.063 300.686,118.004 301.372,112.375 L301.716,109.561 C302.814,100.843 305.629,98.92 315.102,98.92 L322.241,98.92 L321.211,106.403 L321.211,106.403 Z M314.347,124.526 L310.159,124.526 C308.443,124.526 307.139,125.007 306.796,127.478 L305.629,135.578 C305.285,137.98 306.315,138.324 308.1,138.324 L312.356,138.324 L314.347,124.526 L314.347,124.526 Z" id="Fill-29" fill="#FFFFFF" sketch:type="MSShapeGroup"></path>
            <path d="M342.487,97.548 L355.392,97.548 C364.866,97.548 366.925,99.469 365.758,108.256 L365.141,112.856 C364.317,118.759 362.601,120.544 358.894,121.093 C362.601,121.574 363.905,123.222 363.013,129.263 L362.189,134.892 C360.747,144.914 358.276,145.601 348.802,145.601 L335.759,145.601 L342.487,97.548 L342.487,97.548 Z M345.782,138.118 L349.832,138.118 C351.548,138.118 352.715,137.844 353.059,135.372 L354.157,127.478 C354.5,125.075 353.333,124.732 351.617,124.732 L347.704,124.732 L345.782,138.118 L345.782,138.118 Z M348.665,117.73 L352.784,117.73 C354.432,117.73 355.461,117.387 355.805,114.984 L356.765,107.775 C357.109,105.373 356.079,105.029 354.363,105.029 L350.45,105.029 L348.665,117.73 L348.665,117.73 Z" id="Fill-30" fill="#00A1D0" sketch:type="MSShapeGroup"></path>
            <path d="M369.873,97.548 L378.867,97.548 L373.237,137.912 L384.701,137.912 L383.603,145.601 L363.146,145.601 L369.873,97.548" id="Fill-31" fill="#00A1D0" sketch:type="MSShapeGroup"></path>
            <path d="M400.008,97.548 L394.722,135.234 C394.31,137.98 394.928,138.393 396.85,138.393 L399.458,138.393 C401.312,138.393 402.136,137.98 402.547,135.234 L407.833,97.548 L416.758,97.548 L411.54,134.892 C410.305,143.816 407.49,145.876 397.948,145.876 L396.232,145.876 C386.69,145.876 384.424,143.816 385.66,134.892 L390.878,97.548 L400.008,97.548" id="Fill-32" fill="#00A1D0" sketch:type="MSShapeGroup"></path>
            <path d="M422.794,137.912 L435.288,137.912 L434.19,145.601 L412.703,145.601 L419.431,97.548 L440.917,97.548 L439.888,105.236 L427.394,105.236 L425.678,117.181 L437.005,117.181 L435.906,124.869 L424.579,124.869 L422.794,137.912" id="Fill-33" fill="#00A1D0" sketch:type="MSShapeGroup"></path>
        </g>
    </g>
</svg>