<?xml version="1.0" encoding="UTF-8" standalone="no"?>
<svg width="33px" height="28px" viewBox="0 0 33 28" version="1.1" xmlns="http://www.w3.org/2000/svg" xmlns:xlink="http://www.w3.org/1999/xlink" xmlns:sketch="http://www.bohemiancoding.com/sketch/ns">
    <!-- Generator: Sketch 3.3.3 (12081) - http://www.bohemiancoding.com/sketch -->
    <title>news-corner</title>
    <desc>Created with Sketch.</desc>
    <defs></defs>
    <g id="Page-1" stroke="none" stroke-width="1" fill="none" fill-rule="evenodd" sketch:type="MSPage">
        <g id="Imported-Layers" sketch:type="MSLayerGroup">
            <path d="M33,14.483 L33,20.276 L10.313,0.966 L9.281,0 L19.078,0 L33,14.483" id="Fill-1" fill="#FFFFFF" sketch:type="MSShapeGroup"></path>
            <path d="M33,16.94 L33,0 L13.406,0 L33,16.94" id="Fill-2" fill="#000000" sketch:type="MSShapeGroup"></path>
            <path d="M33,18.52 L33,28 L0,0 L11.297,0 L33,18.52" id="Fill-3" fill="#008FC5" sketch:type="MSShapeGroup"></path>
        </g>
    </g>
</svg>