<?xml version="1.0" encoding="utf-8"?>
<!-- Generator: Adobe Illustrator 15.1.0, SVG Export Plug-In . SVG Version: 6.00 Build 0)  -->
<!DOCTYPE svg PUBLIC "-//W3C//DTD SVG 1.1//EN" "http://www.w3.org/Graphics/SVG/1.1/DTD/svg11.dtd">
<svg version="1.1" id="Layer_1" xmlns="http://www.w3.org/2000/svg" xmlns:xlink="http://www.w3.org/1999/xlink" x="0px" y="0px"
	 width="400px" height="400px" viewBox="0 0 400 400" enable-background="new 0 0 400 400" xml:space="preserve">
<path fill="#231F20" d="M118.45,203.624v-20.922l-0.692-0.397l-8.755,3.088v3.528l5.047-1.499v16.202H118.45z M129.146,181.907
	c-4.327,0-7.284,3.471-7.284,7.646c0,4.308,2.354,7.233,6.284,7.233c1.516,0,2.899-0.646,3.9-1.617
	c-0.368,3.543-2.693,5.043-6.652,5.043h-0.309v3.705h0.367c6.652,0,11.052-3.954,11.052-11.512v-1.765
	C136.504,185.024,133.354,181.907,129.146,181.907 M129.293,193.436c-2.016,0-3.032-1.706-3.032-3.882
	c0-1.985,1.045-4.073,2.855-4.073c1.795,0,2.987,1.367,2.988,4.294C132.104,191.906,131.029,193.436,129.293,193.436"/>
<path fill="#231F20" d="M168.308,213.556c2.699,0.861,3.255,1.458,3.255,2.595c0,0.998-0.811,1.802-2.548,1.802
	c-1.981,0-3.301-0.678-3.301-2.755H162.1c0,3.938,3.533,5.59,6.915,5.59c3.706,0,6.162-1.676,6.162-4.66
	c0-2.813-2.05-4.362-5.641-5.465c-2.166-0.653-3.336-1.308-3.336-2.376c0-0.987,0.904-1.837,2.676-1.837
	c1.771,0,2.687,0.965,2.687,2.33h3.591c0-3.134-2.537-5.165-6.208-5.165c-3.66,0-6.336,1.802-6.336,4.649
	C162.609,211.236,165.273,212.58,168.308,213.556 M189.15,206.748v-2.904h-11.421v16.715h11.409v-2.905h-7.795v-3.8l0.66-0.379
	h5.977v-2.904l-5.977,0.001l-0.66-0.379v-3.444H189.15z M199.965,203.844h-3.405l-5.988,16.094v0.621h3.625l1.078-3.284h6
	l1.077,3.283h3.638v-0.62L199.965,203.844z M196.236,214.37l2.04-6.198l2.038,6.198H196.236z M213.146,213.555
	c2.699,0.861,3.255,1.458,3.255,2.595c0,0.999-0.811,1.803-2.548,1.803c-1.98,0-3.301-0.678-3.301-2.756h-3.614
	c0,3.938,3.532,5.591,6.915,5.591c3.707,0,6.162-1.677,6.162-4.661c0-2.813-2.051-4.361-5.641-5.464
	c-2.166-0.654-3.336-1.309-3.336-2.377c0-0.986,0.903-1.836,2.676-1.836c1.771,0,2.687,0.964,2.687,2.33h3.591
	c0-3.134-2.537-5.166-6.209-5.166c-3.66,0-6.335,1.803-6.335,4.649C207.448,211.236,210.111,212.579,213.146,213.555
	 M236.259,212.625v-0.838c0-5.04-2.988-8.174-7.239-8.174c-4.273,0-7.228,3.134-7.228,8.174v0.838c0,5.039,2.978,8.161,7.252,8.161
	C233.295,220.786,236.259,217.664,236.259,212.625 M232.6,211.764v0.861c0,3.317-1.275,5.224-3.556,5.224
	c-2.329,0-3.591-1.906-3.591-5.224v-0.861c0-3.352,1.239-5.2,3.566-5.2C231.303,206.563,232.6,208.412,232.6,211.764
	 M252.637,220.558v-16.715h-3.602v10.837l-6.602-10.837h-3.615l0.001,16.715h3.614V209.72l6.602,10.838H252.637z"/>
<path fill="#231F20" d="M175.651,181.954l-13.899,0.001v2.904l4.447-0.001l0.661,0.38v13.431h3.602v-13.431l0.66-0.38h4.529V181.954
	z M187.769,181.954v6.36l-0.661,0.379h-5.293l-0.66-0.379v-6.36h-3.613v16.715h3.613v-6.692l0.66-0.379h5.293l0.661,0.379v6.691
	h3.59v-16.714H187.769z M198.174,181.954h-3.603v16.714h3.603V181.954z M206.859,191.666c2.699,0.861,3.256,1.458,3.256,2.595
	c0,0.998-0.811,1.802-2.549,1.802c-1.98,0-3.301-0.677-3.301-2.755h-3.614c0,3.938,3.532,5.591,6.915,5.591
	c3.706-0.001,6.162-1.677,6.162-4.661c0-2.813-2.051-4.362-5.641-5.464c-2.166-0.654-3.336-1.309-3.336-2.377
	c0-0.986,0.903-1.836,2.676-1.836c1.771,0,2.688,0.964,2.688,2.33h3.59c0-3.134-2.537-5.166-6.209-5.166
	c-3.659,0-6.334,1.803-6.334,4.649C201.162,189.347,203.825,190.69,206.859,191.666 M226.463,181.954h-3.602v16.714h3.602V181.954z
	 M235.149,191.665c2.698,0.861,3.255,1.459,3.255,2.595c0,0.999-0.811,1.803-2.549,1.803c-1.98,0-3.301-0.678-3.301-2.755h-3.613
	c0,3.938,3.532,5.59,6.914,5.59c3.707,0,6.162-1.676,6.162-4.66c0-2.813-2.051-4.362-5.641-5.465
	c-2.166-0.654-3.336-1.309-3.336-2.376c0-0.987,0.903-1.837,2.676-1.837c1.771,0,2.688,0.964,2.688,2.33h3.59
	c0-3.133-2.536-5.165-6.207-5.165c-3.661,0-6.337,1.802-6.337,4.649C229.45,189.347,232.115,190.689,235.149,191.665
	 M264.841,190.735v-0.838c0-5.04-2.989-8.174-7.239-8.173c-4.273,0-7.229,3.133-7.229,8.173v0.838c0,5.039,2.978,8.162,7.252,8.162
	C261.876,198.897,264.841,195.774,264.841,190.735 M261.182,189.874v0.861c0,3.317-1.275,5.224-3.557,5.224
	c-2.328,0-3.591-1.906-3.591-5.224v-0.861c0-3.352,1.239-5.199,3.567-5.199C259.884,184.674,261.182,186.522,261.182,189.874
	 M280.301,181.953h-3.615v10.951c0,2.159-1.054,3.1-2.895,3.1c-1.818,0-2.908-0.94-2.908-3.099v-10.952h-3.625v10.952
	c0,3.903,2.688,5.992,6.533,5.992c3.868,0,6.51-2.09,6.51-5.993V181.953z M293.06,191.723c1.819-0.805,3.023-2.182,3.023-4.741
	c0-3.272-2.444-5.028-6.278-5.028h-6.416v16.714h3.602v-6.004h2.699l3.127,6.004h3.625v-0.619L293.06,191.723z M286.99,189.381
	v-4.523h2.814c1.737,0,2.664,0.93,2.664,2.469c0,1.469-0.88,2.434-2.617,2.434h-2.201L286.99,189.381z"/>
<path fill="#231F20" d="M123.813,236.985l-21.407-12.37c-1.991-1.324-7.279-4.843-7.279-12.199v-50.061l17.045-0.001v7.058h-9.989
	v43.004c0,2.931,1.612,4.633,4.041,6.264l17.558,10.14c4.34-2.549,14.628-8.574,16.123-9.336c2.513-1.282,5.398-3.245,5.398-7.068
	v-50.061l160.5-0.002v7.057l-153.443,0.002v43.004c0,5.73-3.112,10.224-9.251,13.356c-1.216,0.618-11.146,6.423-17.524,10.172
	L123.813,236.985z"/>
</svg>
